^C:\USERS\CCMA7\SOURCE\REPOS\NOTE_GAME_PROJECT\NOTE_GAME_PROJECT\NOTE_GAME_PROJECT\MIDI.CPP
C:\USERS\CCMA7\SOURCE\REPOS\NOTE_GAME_PROJECT\NOTE_GAME_PROJECT\NOTE_GAME_PROJECT\MIDI.H
C:\PROGRAM FILES (X86)\WINDOWS KITS\10\INCLUDE\10.0.10240.0\UCRT\STDIO.H
C:\PROGRAM FILES (X86)\WINDOWS KITS\10\INCLUDE\10.0.10240.0\UCRT\CORECRT.H
C:\PROGRAM FILES (X86)\MICROSOFT VISUAL STUDIO 14.0\VC\INCLUDE\VCRUNTIME.H
C:\PROGRAM FILES (X86)\MICROSOFT VISUAL STUDIO 14.0\VC\INCLUDE\SAL.H
C:\PROGRAM FILES (X86)\MICROSOFT VISUAL STUDIO 14.0\VC\INCLUDE\CONCURRENCYSAL.H
C:\PROGRAM FILES (X86)\MICROSOFT VISUAL STUDIO 14.0\VC\INCLUDE\VADEFS.H
C:\PROGRAM FILES (X86)\WINDOWS KITS\10\INCLUDE\10.0.10240.0\UCRT\CORECRT_WSTDIO.H
C:\PROGRAM FILES (X86)\WINDOWS KITS\10\INCLUDE\10.0.10240.0\UCRT\CORECRT_STDIO_CONFIG.H
C:\PROGRAM FILES (X86)\WINDOWS KITS\10\INCLUDE\10.0.10240.0\UCRT\STDLIB.H
C:\PROGRAM FILES (X86)\WINDOWS KITS\10\INCLUDE\10.0.10240.0\UCRT\CORECRT_MALLOC.H
C:\PROGRAM FILES (X86)\WINDOWS KITS\10\INCLUDE\10.0.10240.0\UCRT\CORECRT_SEARCH.H
C:\PROGRAM FILES (X86)\WINDOWS KITS\10\INCLUDE\10.0.10240.0\UCRT\STDDEF.H
C:\PROGRAM FILES (X86)\WINDOWS KITS\10\INCLUDE\10.0.10240.0\UCRT\CORECRT_WSTDLIB.H
C:\PROGRAM FILES (X86)\MICROSOFT VISUAL STUDIO 14.0\VC\INCLUDE\LIMITS.H
C:\PROGRAM FILES (X86)\WINDOWS KITS\10\INCLUDE\10.0.10240.0\UCRT\STRING.H
C:\PROGRAM FILES (X86)\WINDOWS KITS\10\INCLUDE\10.0.10240.0\UCRT\CORECRT_MEMORY.H
C:\PROGRAM FILES (X86)\WINDOWS KITS\10\INCLUDE\10.0.10240.0\UCRT\CORECRT_MEMCPY_S.H
C:\PROGRAM FILES (X86)\WINDOWS KITS\10\INCLUDE\10.0.10240.0\UCRT\ERRNO.H
C:\PROGRAM FILES (X86)\MICROSOFT VISUAL STUDIO 14.0\VC\INCLUDE\VCRUNTIME_STRING.H
C:\PROGRAM FILES (X86)\WINDOWS KITS\10\INCLUDE\10.0.10240.0\UCRT\CORECRT_WSTRING.H
C:\PROGRAM FILES (X86)\WINDOWS KITS\10\INCLUDE\10.0.10240.0\UCRT\MATH.H
C:\PROGRAM FILES (X86)\WINDOWS KITS\10\INCLUDE\10.0.10240.0\UCRT\INTTYPES.H
C:\PROGRAM FILES (X86)\MICROSOFT VISUAL STUDIO 14.0\VC\INCLUDE\STDINT.H
C:\PROGRAM FILES (X86)\WINDOWS KITS\10\INCLUDE\10.0.10240.0\UCRT\TIME.H
C:\PROGRAM FILES (X86)\WINDOWS KITS\10\INCLUDE\10.0.10240.0\UCRT\CORECRT_WTIME.H
C:\USERS\CCMA7\SOURCE\REPOS\NOTE_GAME_PROJECT\NOTE_GAME_PROJECT\INC\FMOD.HPP
C:\USERS\CCMA7\SOURCE\REPOS\NOTE_GAME_PROJECT\NOTE_GAME_PROJECT\INC\FMOD.H
C:\USERS\CCMA7\SOURCE\REPOS\NOTE_GAME_PROJECT\NOTE_GAME_PROJECT\INC\FMOD_CODEC.H
C:\USERS\CCMA7\SOURCE\REPOS\NOTE_GAME_PROJECT\NOTE_GAME_PROJECT\INC\FMOD_DSP.H
C:\USERS\CCMA7\SOURCE\REPOS\NOTE_GAME_PROJECT\NOTE_GAME_PROJECT\INC\FMOD_MEMORYINFO.H
^C:\USERS\CCMA7\SOURCE\REPOS\NOTE_GAME_PROJECT\NOTE_GAME_PROJECT\NOTE_GAME_PROJECT\MAIN.CPP
C:\PROGRAM FILES (X86)\WINDOWS KITS\10\INCLUDE\10.0.10240.0\UCRT\STDIO.H
C:\PROGRAM FILES (X86)\WINDOWS KITS\10\INCLUDE\10.0.10240.0\UCRT\CORECRT.H
C:\PROGRAM FILES (X86)\MICROSOFT VISUAL STUDIO 14.0\VC\INCLUDE\VCRUNTIME.H
C:\PROGRAM FILES (X86)\MICROSOFT VISUAL STUDIO 14.0\VC\INCLUDE\SAL.H
C:\PROGRAM FILES (X86)\MICROSOFT VISUAL STUDIO 14.0\VC\INCLUDE\CONCURRENCYSAL.H
C:\PROGRAM FILES (X86)\MICROSOFT VISUAL STUDIO 14.0\VC\INCLUDE\VADEFS.H
C:\PROGRAM FILES (X86)\WINDOWS KITS\10\INCLUDE\10.0.10240.0\UCRT\CORECRT_WSTDIO.H
C:\PROGRAM FILES (X86)\WINDOWS KITS\10\INCLUDE\10.0.10240.0\UCRT\CORECRT_STDIO_CONFIG.H
C:\PROGRAM FILES (X86)\WINDOWS KITS\10\INCLUDE\10.0.10240.0\UCRT\STDLIB.H
C:\PROGRAM FILES (X86)\WINDOWS KITS\10\INCLUDE\10.0.10240.0\UCRT\CORECRT_MALLOC.H
C:\PROGRAM FILES (X86)\WINDOWS KITS\10\INCLUDE\10.0.10240.0\UCRT\CORECRT_SEARCH.H
C:\PROGRAM FILES (X86)\WINDOWS KITS\10\INCLUDE\10.0.10240.0\UCRT\STDDEF.H
C:\PROGRAM FILES (X86)\WINDOWS KITS\10\INCLUDE\10.0.10240.0\UCRT\CORECRT_WSTDLIB.H
C:\PROGRAM FILES (X86)\MICROSOFT VISUAL STUDIO 14.0\VC\INCLUDE\LIMITS.H
C:\PROGRAM FILES (X86)\WINDOWS KITS\10\INCLUDE\10.0.10240.0\UCRT\STRING.H
C:\PROGRAM FILES (X86)\WINDOWS KITS\10\INCLUDE\10.0.10240.0\UCRT\CORECRT_MEMORY.H
C:\PROGRAM FILES (X86)\WINDOWS KITS\10\INCLUDE\10.0.10240.0\UCRT\CORECRT_MEMCPY_S.H
C:\PROGRAM FILES (X86)\WINDOWS KITS\10\INCLUDE\10.0.10240.0\UCRT\ERRNO.H
C:\PROGRAM FILES (X86)\MICROSOFT VISUAL STUDIO 14.0\VC\INCLUDE\VCRUNTIME_STRING.H
C:\PROGRAM FILES (X86)\WINDOWS KITS\10\INCLUDE\10.0.10240.0\UCRT\CORECRT_WSTRING.H
C:\USERS\CCMA7\SOURCE\REPOS\NOTE_GAME_PROJECT\NOTE_GAME_PROJECT\PACKAGES\ALLEGRO.5.2.1.1\BUILD\NATIVE\INCLUDE\ALLEGRO5\ALLEGRO5.H
C:\USERS\CCMA7\SOURCE\REPOS\NOTE_GAME_PROJECT\NOTE_GAME_PROJECT\PACKAGES\ALLEGRO.5.2.1.1\BUILD\NATIVE\INCLUDE\ALLEGRO5\ALLEGRO.H
C:\USERS\CCMA7\SOURCE\REPOS\NOTE_GAME_PROJECT\NOTE_GAME_PROJECT\PACKAGES\ALLEGRO.5.2.1.1\BUILD\NATIVE\INCLUDE\ALLEGRO5\BASE.H
C:\PROGRAM FILES (X86)\MICROSOFT VISUAL STUDIO 14.0\VC\INCLUDE\STDARG.H
C:\PROGRAM FILES (X86)\WINDOWS KITS\10\INCLUDE\10.0.10240.0\UCRT\TIME.H
C:\PROGRAM FILES (X86)\WINDOWS KITS\10\INCLUDE\10.0.10240.0\UCRT\CORECRT_WTIME.H
C:\PROGRAM FILES (X86)\WINDOWS KITS\10\INCLUDE\10.0.10240.0\UCRT\SYS\TYPES.H
C:\USERS\CCMA7\SOURCE\REPOS\NOTE_GAME_PROJECT\NOTE_GAME_PROJECT\PACKAGES\ALLEGRO.5.2.1.1\BUILD\NATIVE\INCLUDE\ALLEGRO5\INTERNAL\ALCONFIG.H
C:\USERS\CCMA7\SOURCE\REPOS\NOTE_GAME_PROJECT\NOTE_GAME_PROJECT\PACKAGES\ALLEGRO.5.2.1.1\BUILD\NATIVE\INCLUDE\ALLEGRO5\PLATFORM\ALPLATF.H
C:\USERS\CCMA7\SOURCE\REPOS\NOTE_GAME_PROJECT\NOTE_GAME_PROJECT\PACKAGES\ALLEGRO.5.2.1.1\BUILD\NATIVE\INCLUDE\ALLEGRO5\PLATFORM\ALMSVC.H
C:\PROGRAM FILES (X86)\WINDOWS KITS\10\INCLUDE\10.0.10240.0\UCRT\IO.H
C:\PROGRAM FILES (X86)\WINDOWS KITS\10\INCLUDE\10.0.10240.0\UCRT\CORECRT_IO.H
C:\PROGRAM FILES (X86)\WINDOWS KITS\10\INCLUDE\10.0.10240.0\UCRT\CORECRT_SHARE.H
C:\PROGRAM FILES (X86)\WINDOWS KITS\10\INCLUDE\10.0.10240.0\UCRT\CORECRT_WIO.H
C:\PROGRAM FILES (X86)\WINDOWS KITS\10\INCLUDE\10.0.10240.0\UCRT\FCNTL.H
C:\PROGRAM FILES (X86)\WINDOWS KITS\10\INCLUDE\10.0.10240.0\UCRT\DIRECT.H
C:\PROGRAM FILES (X86)\WINDOWS KITS\10\INCLUDE\10.0.10240.0\UCRT\CORECRT_WDIRECT.H
C:\PROGRAM FILES (X86)\WINDOWS KITS\10\INCLUDE\10.0.10240.0\UCRT\MALLOC.H
C:\USERS\CCMA7\SOURCE\REPOS\NOTE_GAME_PROJECT\NOTE_GAME_PROJECT\PACKAGES\ALLEGRO.5.2.1.1\BUILD\NATIVE\INCLUDE\ALLEGRO5\PLATFORM\ASTDINT.H
C:\PROGRAM FILES (X86)\WINDOWS KITS\10\INCLUDE\10.0.10240.0\UCRT\INTTYPES.H
C:\PROGRAM FILES (X86)\MICROSOFT VISUAL STUDIO 14.0\VC\INCLUDE\STDINT.H
C:\USERS\CCMA7\SOURCE\REPOS\NOTE_GAME_PROJECT\NOTE_GAME_PROJECT\PACKAGES\ALLEGRO.5.2.1.1\BUILD\NATIVE\INCLUDE\ALLEGRO5\PLATFORM\ASTDBOOL.H
C:\USERS\CCMA7\SOURCE\REPOS\NOTE_GAME_PROJECT\NOTE_GAME_PROJECT\PACKAGES\ALLEGRO.5.2.1.1\BUILD\NATIVE\INCLUDE\ALLEGRO5\ALTIME.H
C:\USERS\CCMA7\SOURCE\REPOS\NOTE_GAME_PROJECT\NOTE_GAME_PROJECT\PACKAGES\ALLEGRO.5.2.1.1\BUILD\NATIVE\INCLUDE\ALLEGRO5\BITMAP.H
C:\USERS\CCMA7\SOURCE\REPOS\NOTE_GAME_PROJECT\NOTE_GAME_PROJECT\PACKAGES\ALLEGRO.5.2.1.1\BUILD\NATIVE\INCLUDE\ALLEGRO5\COLOR.H
C:\USERS\CCMA7\SOURCE\REPOS\NOTE_GAME_PROJECT\NOTE_GAME_PROJECT\PACKAGES\ALLEGRO.5.2.1.1\BUILD\NATIVE\INCLUDE\ALLEGRO5\BITMAP_DRAW.H
C:\USERS\CCMA7\SOURCE\REPOS\NOTE_GAME_PROJECT\NOTE_GAME_PROJECT\PACKAGES\ALLEGRO.5.2.1.1\BUILD\NATIVE\INCLUDE\ALLEGRO5\BITMAP_IO.H
C:\USERS\CCMA7\SOURCE\REPOS\NOTE_GAME_PROJECT\NOTE_GAME_PROJECT\PACKAGES\ALLEGRO.5.2.1.1\BUILD\NATIVE\INCLUDE\ALLEGRO5\FILE.H
C:\USERS\CCMA7\SOURCE\REPOS\NOTE_GAME_PROJECT\NOTE_GAME_PROJECT\PACKAGES\ALLEGRO.5.2.1.1\BUILD\NATIVE\INCLUDE\ALLEGRO5\PATH.H
C:\USERS\CCMA7\SOURCE\REPOS\NOTE_GAME_PROJECT\NOTE_GAME_PROJECT\PACKAGES\ALLEGRO.5.2.1.1\BUILD\NATIVE\INCLUDE\ALLEGRO5\UTF8.H
C:\USERS\CCMA7\SOURCE\REPOS\NOTE_GAME_PROJECT\NOTE_GAME_PROJECT\PACKAGES\ALLEGRO.5.2.1.1\BUILD\NATIVE\INCLUDE\ALLEGRO5\BITMAP_LOCK.H
C:\USERS\CCMA7\SOURCE\REPOS\NOTE_GAME_PROJECT\NOTE_GAME_PROJECT\PACKAGES\ALLEGRO.5.2.1.1\BUILD\NATIVE\INCLUDE\ALLEGRO5\BLENDER.H
C:\USERS\CCMA7\SOURCE\REPOS\NOTE_GAME_PROJECT\NOTE_GAME_PROJECT\PACKAGES\ALLEGRO.5.2.1.1\BUILD\NATIVE\INCLUDE\ALLEGRO5\CLIPBOARD.H
C:\USERS\CCMA7\SOURCE\REPOS\NOTE_GAME_PROJECT\NOTE_GAME_PROJECT\PACKAGES\ALLEGRO.5.2.1.1\BUILD\NATIVE\INCLUDE\ALLEGRO5\DISPLAY.H
C:\USERS\CCMA7\SOURCE\REPOS\NOTE_GAME_PROJECT\NOTE_GAME_PROJECT\PACKAGES\ALLEGRO.5.2.1.1\BUILD\NATIVE\INCLUDE\ALLEGRO5\EVENTS.H
C:\USERS\CCMA7\SOURCE\REPOS\NOTE_GAME_PROJECT\NOTE_GAME_PROJECT\PACKAGES\ALLEGRO.5.2.1.1\BUILD\NATIVE\INCLUDE\ALLEGRO5\CONFIG.H
C:\USERS\CCMA7\SOURCE\REPOS\NOTE_GAME_PROJECT\NOTE_GAME_PROJECT\PACKAGES\ALLEGRO.5.2.1.1\BUILD\NATIVE\INCLUDE\ALLEGRO5\CPU.H
C:\USERS\CCMA7\SOURCE\REPOS\NOTE_GAME_PROJECT\NOTE_GAME_PROJECT\PACKAGES\ALLEGRO.5.2.1.1\BUILD\NATIVE\INCLUDE\ALLEGRO5\DEBUG.H
C:\PROGRAM FILES (X86)\WINDOWS KITS\10\INCLUDE\10.0.10240.0\UCRT\ASSERT.H
C:\USERS\CCMA7\SOURCE\REPOS\NOTE_GAME_PROJECT\NOTE_GAME_PROJECT\PACKAGES\ALLEGRO.5.2.1.1\BUILD\NATIVE\INCLUDE\ALLEGRO5\DRAWING.H
C:\USERS\CCMA7\SOURCE\REPOS\NOTE_GAME_PROJECT\NOTE_GAME_PROJECT\PACKAGES\ALLEGRO.5.2.1.1\BUILD\NATIVE\INCLUDE\ALLEGRO5\ERROR.H
C:\USERS\CCMA7\SOURCE\REPOS\NOTE_GAME_PROJECT\NOTE_GAME_PROJECT\PACKAGES\ALLEGRO.5.2.1.1\BUILD\NATIVE\INCLUDE\ALLEGRO5\FIXED.H
C:\USERS\CCMA7\SOURCE\REPOS\NOTE_GAME_PROJECT\NOTE_GAME_PROJECT\PACKAGES\ALLEGRO.5.2.1.1\BUILD\NATIVE\INCLUDE\ALLEGRO5\FMATHS.H
C:\USERS\CCMA7\SOURCE\REPOS\NOTE_GAME_PROJECT\NOTE_GAME_PROJECT\PACKAGES\ALLEGRO.5.2.1.1\BUILD\NATIVE\INCLUDE\ALLEGRO5\INLINE\FMATHS.INL
C:\USERS\CCMA7\SOURCE\REPOS\NOTE_GAME_PROJECT\NOTE_GAME_PROJECT\PACKAGES\ALLEGRO.5.2.1.1\BUILD\NATIVE\INCLUDE\ALLEGRO5\FSHOOK.H
C:\USERS\CCMA7\SOURCE\REPOS\NOTE_GAME_PROJECT\NOTE_GAME_PROJECT\PACKAGES\ALLEGRO.5.2.1.1\BUILD\NATIVE\INCLUDE\ALLEGRO5\FULLSCREEN_MODE.H
C:\USERS\CCMA7\SOURCE\REPOS\NOTE_GAME_PROJECT\NOTE_GAME_PROJECT\PACKAGES\ALLEGRO.5.2.1.1\BUILD\NATIVE\INCLUDE\ALLEGRO5\HAPTIC.H
C:\USERS\CCMA7\SOURCE\REPOS\NOTE_GAME_PROJECT\NOTE_GAME_PROJECT\PACKAGES\ALLEGRO.5.2.1.1\BUILD\NATIVE\INCLUDE\ALLEGRO5\JOYSTICK.H
C:\USERS\CCMA7\SOURCE\REPOS\NOTE_GAME_PROJECT\NOTE_GAME_PROJECT\PACKAGES\ALLEGRO.5.2.1.1\BUILD\NATIVE\INCLUDE\ALLEGRO5\KEYBOARD.H
C:\USERS\CCMA7\SOURCE\REPOS\NOTE_GAME_PROJECT\NOTE_GAME_PROJECT\PACKAGES\ALLEGRO.5.2.1.1\BUILD\NATIVE\INCLUDE\ALLEGRO5\KEYCODES.H
C:\USERS\CCMA7\SOURCE\REPOS\NOTE_GAME_PROJECT\NOTE_GAME_PROJECT\PACKAGES\ALLEGRO.5.2.1.1\BUILD\NATIVE\INCLUDE\ALLEGRO5\MOUSE.H
C:\USERS\CCMA7\SOURCE\REPOS\NOTE_GAME_PROJECT\NOTE_GAME_PROJECT\PACKAGES\ALLEGRO.5.2.1.1\BUILD\NATIVE\INCLUDE\ALLEGRO5\TOUCH_INPUT.H
C:\USERS\CCMA7\SOURCE\REPOS\NOTE_GAME_PROJECT\NOTE_GAME_PROJECT\PACKAGES\ALLEGRO.5.2.1.1\BUILD\NATIVE\INCLUDE\ALLEGRO5\MEMORY.H
C:\USERS\CCMA7\SOURCE\REPOS\NOTE_GAME_PROJECT\NOTE_GAME_PROJECT\PACKAGES\ALLEGRO.5.2.1.1\BUILD\NATIVE\INCLUDE\ALLEGRO5\MONITOR.H
C:\USERS\CCMA7\SOURCE\REPOS\NOTE_GAME_PROJECT\NOTE_GAME_PROJECT\PACKAGES\ALLEGRO.5.2.1.1\BUILD\NATIVE\INCLUDE\ALLEGRO5\MOUSE_CURSOR.H
C:\USERS\CCMA7\SOURCE\REPOS\NOTE_GAME_PROJECT\NOTE_GAME_PROJECT\PACKAGES\ALLEGRO.5.2.1.1\BUILD\NATIVE\INCLUDE\ALLEGRO5\RENDER_STATE.H
C:\USERS\CCMA7\SOURCE\REPOS\NOTE_GAME_PROJECT\NOTE_GAME_PROJECT\PACKAGES\ALLEGRO.5.2.1.1\BUILD\NATIVE\INCLUDE\ALLEGRO5\SHADER.H
C:\USERS\CCMA7\SOURCE\REPOS\NOTE_GAME_PROJECT\NOTE_GAME_PROJECT\PACKAGES\ALLEGRO.5.2.1.1\BUILD\NATIVE\INCLUDE\ALLEGRO5\TRANSFORMATIONS.H
C:\USERS\CCMA7\SOURCE\REPOS\NOTE_GAME_PROJECT\NOTE_GAME_PROJECT\PACKAGES\ALLEGRO.5.2.1.1\BUILD\NATIVE\INCLUDE\ALLEGRO5\SYSTEM.H
C:\USERS\CCMA7\SOURCE\REPOS\NOTE_GAME_PROJECT\NOTE_GAME_PROJECT\PACKAGES\ALLEGRO.5.2.1.1\BUILD\NATIVE\INCLUDE\ALLEGRO5\THREADS.H
C:\USERS\CCMA7\SOURCE\REPOS\NOTE_GAME_PROJECT\NOTE_GAME_PROJECT\PACKAGES\ALLEGRO.5.2.1.1\BUILD\NATIVE\INCLUDE\ALLEGRO5\TIMER.H
C:\USERS\CCMA7\SOURCE\REPOS\NOTE_GAME_PROJECT\NOTE_GAME_PROJECT\PACKAGES\ALLEGRO.5.2.1.1\BUILD\NATIVE\INCLUDE\ALLEGRO5\TLS.H
C:\USERS\CCMA7\SOURCE\REPOS\NOTE_GAME_PROJECT\NOTE_GAME_PROJECT\PACKAGES\ALLEGRO.5.2.1.1\BUILD\NATIVE\INCLUDE\ALLEGRO5\ALCOMPAT.H
C:\USERS\CCMA7\SOURCE\REPOS\NOTE_GAME_PROJECT\NOTE_GAME_PROJECT\PACKAGES\ALLEGRO.5.2.1.1\BUILD\NATIVE\INCLUDE\ALLEGRO5\PLATFORM\ALWIN.H
C:\USERS\CCMA7\SOURCE\REPOS\NOTE_GAME_PROJECT\NOTE_GAME_PROJECT\PACKAGES\ALLEGRO.5.2.1.1\BUILD\NATIVE\INCLUDE\ALLEGRO5\ALLEGRO_IMAGE.H
C:\USERS\CCMA7\SOURCE\REPOS\NOTE_GAME_PROJECT\NOTE_GAME_PROJECT\PACKAGES\ALLEGRO.5.2.1.1\BUILD\NATIVE\INCLUDE\ALLEGRO5\ALLEGRO_NATIVE_DIALOG.H
C:\USERS\CCMA7\SOURCE\REPOS\NOTE_GAME_PROJECT\NOTE_GAME_PROJECT\PACKAGES\ALLEGRO.5.2.1.1\BUILD\NATIVE\INCLUDE\ALLEGRO5\ALLEGRO_FONT.H
C:\USERS\CCMA7\SOURCE\REPOS\NOTE_GAME_PROJECT\NOTE_GAME_PROJECT\PACKAGES\ALLEGRO.5.2.1.1\BUILD\NATIVE\INCLUDE\ALLEGRO5\ALLEGRO_TTF.H
C:\USERS\CCMA7\SOURCE\REPOS\NOTE_GAME_PROJECT\NOTE_GAME_PROJECT\NOTE_GAME_PROJECT\DIRENT.H
C:\PROGRAM FILES (X86)\WINDOWS KITS\8.1\INCLUDE\UM\WINDOWS.H
C:\PROGRAM FILES (X86)\WINDOWS KITS\8.1\INCLUDE\SHARED\WINAPIFAMILY.H
C:\PROGRAM FILES (X86)\WINDOWS KITS\8.1\INCLUDE\SHARED\SDKDDKVER.H
C:\PROGRAM FILES (X86)\MICROSOFT VISUAL STUDIO 14.0\VC\INCLUDE\EXCPT.H
C:\PROGRAM FILES (X86)\WINDOWS KITS\8.1\INCLUDE\SHARED\WINDEF.H
C:\PROGRAM FILES (X86)\WINDOWS KITS\8.1\INCLUDE\SHARED\MINWINDEF.H
C:\PROGRAM FILES (X86)\WINDOWS KITS\8.1\INCLUDE\SHARED\SPECSTRINGS.H
C:\PROGRAM FILES (X86)\WINDOWS KITS\8.1\INCLUDE\SHARED\SPECSTRINGS_STRICT.H
C:\PROGRAM FILES (X86)\WINDOWS KITS\8.1\INCLUDE\SHARED\SPECSTRINGS_UNDEF.H
C:\PROGRAM FILES (X86)\WINDOWS KITS\8.1\INCLUDE\SHARED\DRIVERSPECS.H
C:\PROGRAM FILES (X86)\WINDOWS KITS\8.1\INCLUDE\SHARED\SDV_DRIVERSPECS.H
C:\PROGRAM FILES (X86)\WINDOWS KITS\8.1\INCLUDE\UM\WINNT.H
C:\PROGRAM FILES (X86)\WINDOWS KITS\10\INCLUDE\10.0.10240.0\UCRT\CTYPE.H
C:\PROGRAM FILES (X86)\WINDOWS KITS\10\INCLUDE\10.0.10240.0\UCRT\CORECRT_WCTYPE.H
C:\PROGRAM FILES (X86)\WINDOWS KITS\8.1\INCLUDE\SHARED\KERNELSPECS.H
C:\PROGRAM FILES (X86)\WINDOWS KITS\8.1\INCLUDE\SHARED\BASETSD.H
C:\PROGRAM FILES (X86)\WINDOWS KITS\8.1\INCLUDE\SHARED\GUIDDEF.H
C:\PROGRAM FILES (X86)\WINDOWS KITS\8.1\INCLUDE\SHARED\PSHPACK4.H
C:\PROGRAM FILES (X86)\WINDOWS KITS\8.1\INCLUDE\SHARED\POPPACK.H
C:\PROGRAM FILES (X86)\WINDOWS KITS\8.1\INCLUDE\SHARED\PSHPACK2.H
C:\PROGRAM FILES (X86)\WINDOWS KITS\8.1\INCLUDE\SHARED\PSHPACK8.H
C:\PROGRAM FILES (X86)\WINDOWS KITS\8.1\INCLUDE\SHARED\APISET.H
C:\PROGRAM FILES (X86)\WINDOWS KITS\8.1\INCLUDE\SHARED\KTMTYPES.H
C:\PROGRAM FILES (X86)\WINDOWS KITS\8.1\INCLUDE\UM\WINBASE.H
C:\PROGRAM FILES (X86)\WINDOWS KITS\8.1\INCLUDE\SHARED\APISETCCONV.H
C:\PROGRAM FILES (X86)\WINDOWS KITS\8.1\INCLUDE\UM\MINWINBASE.H
C:\PROGRAM FILES (X86)\WINDOWS KITS\8.1\INCLUDE\UM\PROCESSENV.H
C:\PROGRAM FILES (X86)\WINDOWS KITS\8.1\INCLUDE\UM\FILEAPI.H
C:\PROGRAM FILES (X86)\WINDOWS KITS\8.1\INCLUDE\UM\DEBUGAPI.H
C:\PROGRAM FILES (X86)\WINDOWS KITS\8.1\INCLUDE\UM\UTILAPISET.H
C:\PROGRAM FILES (X86)\WINDOWS KITS\8.1\INCLUDE\UM\HANDLEAPI.H
C:\PROGRAM FILES (X86)\WINDOWS KITS\8.1\INCLUDE\UM\ERRHANDLINGAPI.H
C:\PROGRAM FILES (X86)\WINDOWS KITS\8.1\INCLUDE\UM\FIBERSAPI.H
C:\PROGRAM FILES (X86)\WINDOWS KITS\8.1\INCLUDE\UM\NAMEDPIPEAPI.H
C:\PROGRAM FILES (X86)\WINDOWS KITS\8.1\INCLUDE\UM\PROFILEAPI.H
C:\PROGRAM FILES (X86)\WINDOWS KITS\8.1\INCLUDE\UM\HEAPAPI.H
C:\PROGRAM FILES (X86)\WINDOWS KITS\8.1\INCLUDE\UM\IOAPISET.H
C:\PROGRAM FILES (X86)\WINDOWS KITS\8.1\INCLUDE\UM\SYNCHAPI.H
C:\PROGRAM FILES (X86)\WINDOWS KITS\8.1\INCLUDE\UM\INTERLOCKEDAPI.H
C:\PROGRAM FILES (X86)\WINDOWS KITS\8.1\INCLUDE\UM\PROCESSTHREADSAPI.H
C:\PROGRAM FILES (X86)\WINDOWS KITS\8.1\INCLUDE\UM\SYSINFOAPI.H
C:\PROGRAM FILES (X86)\WINDOWS KITS\8.1\INCLUDE\UM\MEMORYAPI.H
C:\PROGRAM FILES (X86)\WINDOWS KITS\8.1\INCLUDE\UM\THREADPOOLLEGACYAPISET.H
C:\PROGRAM FILES (X86)\WINDOWS KITS\8.1\INCLUDE\UM\THREADPOOLAPISET.H
C:\PROGRAM FILES (X86)\WINDOWS KITS\8.1\INCLUDE\UM\BEMAPISET.H
C:\PROGRAM FILES (X86)\WINDOWS KITS\8.1\INCLUDE\UM\JOBAPI.H
C:\PROGRAM FILES (X86)\WINDOWS KITS\8.1\INCLUDE\UM\WOW64APISET.H
C:\PROGRAM FILES (X86)\WINDOWS KITS\8.1\INCLUDE\UM\LIBLOADERAPI.H
C:\PROGRAM FILES (X86)\WINDOWS KITS\8.1\INCLUDE\UM\SECURITYBASEAPI.H
C:\PROGRAM FILES (X86)\WINDOWS KITS\8.1\INCLUDE\UM\NAMESPACEAPI.H
C:\PROGRAM FILES (X86)\WINDOWS KITS\8.1\INCLUDE\UM\SYSTEMTOPOLOGYAPI.H
C:\PROGRAM FILES (X86)\WINDOWS KITS\8.1\INCLUDE\UM\PROCESSTOPOLOGYAPI.H
C:\PROGRAM FILES (X86)\WINDOWS KITS\8.1\INCLUDE\UM\SECURITYAPPCONTAINER.H
C:\PROGRAM FILES (X86)\WINDOWS KITS\8.1\INCLUDE\UM\REALTIMEAPISET.H
C:\PROGRAM FILES (X86)\WINDOWS KITS\8.1\INCLUDE\SHARED\WINERROR.H
C:\PROGRAM FILES (X86)\WINDOWS KITS\8.1\INCLUDE\UM\TIMEZONEAPI.H
C:\PROGRAM FILES (X86)\WINDOWS KITS\8.1\INCLUDE\UM\WINGDI.H
C:\PROGRAM FILES (X86)\WINDOWS KITS\8.1\INCLUDE\SHARED\PSHPACK1.H
C:\PROGRAM FILES (X86)\WINDOWS KITS\8.1\INCLUDE\UM\WINUSER.H
C:\PROGRAM FILES (X86)\WINDOWS KITS\8.1\INCLUDE\SHARED\TVOUT.H
C:\PROGRAM FILES (X86)\WINDOWS KITS\8.1\INCLUDE\UM\WINNLS.H
C:\PROGRAM FILES (X86)\WINDOWS KITS\8.1\INCLUDE\UM\DATETIMEAPI.H
C:\PROGRAM FILES (X86)\WINDOWS KITS\8.1\INCLUDE\UM\STRINGAPISET.H
C:\PROGRAM FILES (X86)\WINDOWS KITS\8.1\INCLUDE\UM\WINCON.H
C:\PROGRAM FILES (X86)\WINDOWS KITS\8.1\INCLUDE\UM\CONSOLEAPI.H
C:\PROGRAM FILES (X86)\WINDOWS KITS\8.1\INCLUDE\UM\WINVER.H
C:\PROGRAM FILES (X86)\WINDOWS KITS\8.1\INCLUDE\UM\VERRSRC.H
C:\PROGRAM FILES (X86)\WINDOWS KITS\8.1\INCLUDE\UM\WINREG.H
C:\PROGRAM FILES (X86)\WINDOWS KITS\8.1\INCLUDE\UM\REASON.H
C:\PROGRAM FILES (X86)\WINDOWS KITS\8.1\INCLUDE\UM\WINNETWK.H
C:\PROGRAM FILES (X86)\WINDOWS KITS\8.1\INCLUDE\SHARED\WNNC.H
C:\PROGRAM FILES (X86)\WINDOWS KITS\8.1\INCLUDE\SHARED\STRALIGN.H
C:\PROGRAM FILES (X86)\WINDOWS KITS\8.1\INCLUDE\UM\WINSVC.H
C:\PROGRAM FILES (X86)\WINDOWS KITS\8.1\INCLUDE\UM\MCX.H
C:\PROGRAM FILES (X86)\WINDOWS KITS\8.1\INCLUDE\UM\IMM.H
C:\PROGRAM FILES (X86)\WINDOWS KITS\8.1\INCLUDE\UM\IME_CMODES.H
C:\PROGRAM FILES (X86)\WINDOWS KITS\10\INCLUDE\10.0.10240.0\UCRT\WCHAR.H
C:\PROGRAM FILES (X86)\WINDOWS KITS\10\INCLUDE\10.0.10240.0\UCRT\CORECRT_WCONIO.H
C:\PROGRAM FILES (X86)\WINDOWS KITS\10\INCLUDE\10.0.10240.0\UCRT\CORECRT_WPROCESS.H
C:\PROGRAM FILES (X86)\WINDOWS KITS\10\INCLUDE\10.0.10240.0\UCRT\SYS\STAT.H
C:\USERS\CCMA7\SOURCE\REPOS\NOTE_GAME_PROJECT\NOTE_GAME_PROJECT\NOTE_GAME_PROJECT\MIDI.H
C:\PROGRAM FILES (X86)\WINDOWS KITS\10\INCLUDE\10.0.10240.0\UCRT\MATH.H
C:\USERS\CCMA7\SOURCE\REPOS\NOTE_GAME_PROJECT\NOTE_GAME_PROJECT\INC\FMOD.HPP
C:\USERS\CCMA7\SOURCE\REPOS\NOTE_GAME_PROJECT\NOTE_GAME_PROJECT\INC\FMOD.H
C:\USERS\CCMA7\SOURCE\REPOS\NOTE_GAME_PROJECT\NOTE_GAME_PROJECT\INC\FMOD_CODEC.H
C:\USERS\CCMA7\SOURCE\REPOS\NOTE_GAME_PROJECT\NOTE_GAME_PROJECT\INC\FMOD_DSP.H
C:\USERS\CCMA7\SOURCE\REPOS\NOTE_GAME_PROJECT\NOTE_GAME_PROJECT\INC\FMOD_MEMORYINFO.H
C:\WINDOWS\GLOBALIZATION\SORTING\SORTDEFAULT.NLS
C:\PROGRAM FILES (X86)\MICROSOFT VISUAL STUDIO 14.0\VC\BIN\1042\CLUI.DLL
C:\WINDOWS\SYSTEM32\TZRES.DLL
C:\PROGRAM FILES (X86)\MICROSOFT VISUAL STUDIO 14.0\VC\BIN\MSPDBSRV.EXE
