^C:\USERS\CCMA7\SOURCE\REPOS\NOTE_GAME_PROJECT\NOTE_GAME_PROJECT\NOTE_GAME_PROJECT\DEBUG\MAIN.OBJ|C:\USERS\CCMA7\SOURCE\REPOS\NOTE_GAME_PROJECT\NOTE_GAME_PROJECT\NOTE_GAME_PROJECT\DEBUG\MIDI.OBJ
C:\USERS\CCMA7\SOURCE\REPOS\NOTE_GAME_PROJECT\NOTE_GAME_PROJECT\DEBUG\NOTE_GAME_PROJECT.ILK
C:\USERS\CCMA7\SOURCE\REPOS\NOTE_GAME_PROJECT\NOTE_GAME_PROJECT\DEBUG\NOTE_GAME_PROJECT.EXE
C:\USERS\CCMA7\SOURCE\REPOS\NOTE_GAME_PROJECT\NOTE_GAME_PROJECT\DEBUG\NOTE_GAME_PROJECT.PDB
